API / Docstrings · UnfoldSim.jl
…
julia> generate_events(StableRNG(1), design)
150×3 DataFrame
 Row │ subject  cond    item   
     │ String   String  String 
─────┼─────────────────────────
   1 │ S01      levelA  I01
   2 │ S01      levelA  I03
   3 │ S01      levelA  I05
  ⋮  │    ⋮       ⋮       ⋮
 148 │ S30      levelB  I06
 149 │ S30      levelB  I08
 150 │ S30      levelB  I10
               144 rows omitted
…
julia> using StableRNGs # For using the `generate_events` function in a reproducible way

julia> design =
           SingleSubjectDesign(;
               conditions = Dict(
                   :stimulus_type => ["natural", "artificial"],
                   :contrast_level => range(0, 1, length = 5),
               ),
           )
SingleSubjectDesign
  conditions: Dict{Symbol, Vector}
  event_order_function: #10 (function of type UnfoldSim.var"#10#14")

julia> generate_events(StableRNG(1), design)
10×2 DataFrame
 Row │ contrast_level  stimulus_type 
     │ Float64         String        
─────┼───────────────────────────────
   1 │           0.0   natural
   2 │           0.25  natural
   3 │           0.5   natural
  ⋮  │       ⋮               ⋮
   8 │           0.5   artificial
   9 │           0.75  artificial
  10 │           1.0   artificial
                       4 rows omitted
…
julia> using Random # for shuffling
julia> using StableRNGs

julia> design = MultiSubjectDesign(;
                       n_items = 4,
                       n_subjects = 5,
                       both_within = Dict(:condition => ["red", "green"]),
                       event_order_function = shuffle,
                       );

julia> generate_events(StableRNG(1), design)
40×3 DataFrame
 Row │ subject  item    condition 
     │ String   String  String    
─────┼────────────────────────────
   1 │ S1       I2      red
   2 │ S1       I2      green
   3 │ S1       I3      green
  ⋮  │    ⋮       ⋮         ⋮
  38 │ S5       I3      red
  39 │ S5       I2      red
  40 │ S5       I4      green
                   34 rows omitted
…
events contains the event combinations based on the experimental design. Each row corresponds to one combination of condition levels which is often equivalent to one stimulus or trial.

Examples

julia> data, events = UnfoldSim.predef_2x2();

julia> events
100×3 DataFrame
 Row │ A        B        latency 
     │ String   String   Int64   
─────┼───────────────────────────
   1 │ a_small  b_large       62
   2 │ a_big    b_tiny       132
  ⋮  │    ⋮        ⋮        ⋮
  99 │ a_big    b_large     5883
 100 │ a_big    b_tiny      5935
                  96 rows omitted
…
julia> noise = PinkNoise(; noiselevel = 0.2);

# Variant 1: Use a custom RNG.
julia> data, events = simulate(MersenneTwister(2), design, component, onset, noise);

julia> data
293-element Vector{Float64}:
 -0.013583193323430123
  0.09159433856866195
  ⋮
 -0.25190584567097907
 -0.20179992275876316

julia> events
20×2 DataFrame
 Row │ cond_A   latency 
     │ String   Int64   
─────┼──────────────────
   1 │ level_A        9
   2 │ level_B       20
   3 │ level_A       27
   4 │ level_B       37
  ⋮  │    ⋮        ⋮
  18 │ level_B      257
  19 │ level_A      271
  20 │ level_B      284
         13 rows omitted
…
